%YAML 1.1
%TAG !u! tag:unity3d.com,2011:
--- !u!114 &11400000
MonoBehaviour:
  m_ObjectHideFlags: 0
  m_CorrespondingSourceObject: {fileID: 0}
  m_PrefabInstance: {fileID: 0}
  m_PrefabAsset: {fileID: 0}
  m_GameObject: {fileID: 0}
  m_Enabled: 1
  m_EditorHideFlags: 0
  m_Script: {fileID: 11500000, guid: e47f37dc444f1064aa24579194086f8b, type: 3}
  m_Name: DiceInt
  m_EditorClassIdentifier: 
  dice: {fileID: 886700907989485371, guid: 8c271941a22016e4f87e78275fcac303, type: 3}
  sides: 6
